format 224
"Diagramme_uml"
  revision 1
  modified_by 2 "tkp"


  
  // class settings
  default_attribute_visibility private default_relation_visibility private default_operation_visibility public
  
  classdiagramsettings draw_all_relations yes hide_attributes no hide_operations no hide_getset_operations no hide_ports no show_members_full_definition no show_members_visibility no show_members_stereotype no show_members_context no show_members_multiplicity no show_members_initialization no show_attribute_modifiers no member_max_width 127 show_parameter_dir yes show_parameter_name yes package_name_in_tab no class_drawing_mode natural drawing_language uml show_context_mode no auto_label_position yes show_relation_modifiers no show_relation_visibility no show_infonote no shadow yes gradient none show_stereotype_properties no end
  
  classcompositediagramsettings auto_label_position yes draw_all_relations yes shadow yes gradient none end
  
  usecasediagramsettings package_name_in_tab no show_context_mode no auto_label_position yes draw_all_relations yes class_drawing_mode actor shadow yes gradient none show_stereotype_properties no end
  
  sequencediagramsettings show_full_operations_definition no show_class_of_operation no write_horizontally yes instances_drawing_mode natural drawing_language uml draw_all_relations yes shadow yes gradient none show_stereotype_properties no show_class_context_mode no show_msg_context_mode no end
  
  collaborationdiagramsettings show_full_operations_definition no show_class_of_operation no show_hierarchical_rank no write_horizontally yes instances_drawing_mode natural drawing_language uml package_name_in_tab no show_class_pack_context_mode no show_msg_context_mode no draw_all_relations yes shadow yes gradient none show_stereotype_properties no end
  
  objectdiagramsettings write_horizontally yes package_name_in_tab no show_class_pack_context_mode no auto_label_position yes draw_all_relations yes shadow yes gradient none show_stereotype_properties no end
  
  objectcompositediagramsettings auto_label_position yes draw_all_relations yes shadow yes gradient none end
  
  componentdiagramsettings package_name_in_tab no show_context_mode no auto_label_position yes draw_all_relations yes shadow yes gradient none
   draw_component_as_icon no show_component_req_prov no show_component_rea no show_stereotype_properties no end
  
  deploymentdiagramsettings package_name_in_tab no show_context_mode no write_horizontally yes auto_label_position yes draw_all_relations yes shadow yes gradient none
   draw_component_as_icon no show_component_req_prov no show_component_rea no show_stereotype_properties no end
  
  statediagramsettings package_name_in_tab no show_context_mode no auto_label_position yes write_label_horizontally yes show_trans_definition no draw_all_relations yes shadow yes gradient none
   show_activities yes region_horizontally yes drawing_language uml show_stereotype_properties no end
  
  activitydiagramsettings package_name_in_tab no show_context_mode no show_opaque_action_definition no auto_label_position yes write_label_horizontally no draw_all_relations yes shadow yes gradient none
   show_infonote yes drawing_language uml show_stereotype_properties no end
  
  class_color yellow duration_color transparent continuation_color gray note_color blue fragment_color transparent subject_color transparent usecase_color yellow package_color transparent component_color green artifact_color green deploymentnode_color gray state_color yellow stateaction_color transparent activity_color transparent activityregion_color transparent activitypartition_color transparent activityaction_color transparent parameterpin_color white generalization_color black 
  dpi 96
  font_size 11
  diagram_format A4

  image_root_dir ""


  mark_for_import
  
  classview 128002 "Diagramme_de_class"
    
    classdiagramsettings member_max_width 0 end
    
    classcompositediagramsettings end
    
    collaborationdiagramsettings end
    
    objectdiagramsettings end
    
    objectcompositediagramsettings end
    
    sequencediagramsettings end
    
    statediagramsettings
     end
    
    
    activitydiagramsettings
     end
    classdiagram 128002 "Scrabble"
      classdiagramsettings draw_all_relations no member_max_width 0 end
      size A4
    end

    class 128002 "Jeton"
      visibility package 
      cpp_decl ""
      java_decl ""
      php_decl ""
      python_2_2 python_decl ""
      idl_decl ""
      explicit_switch_type ""
      mysql_decl ""
      
      attribute 128002 "lettre"
	private explicit_type "char"
	cpp_decl ""
	java_decl ""
	php_decl ""
	python_decl ""
	idl_decl ""
	mysql_decl ""
	MysqlColumn
      end

      attribute 128130 "valeur"
	private explicit_type "int"
	cpp_decl ""
	java_decl ""
	php_decl ""
	python_decl ""
	idl_decl ""
	mysql_decl ""
	MysqlColumn
      end

      attribute 128258 "quantite"
	private explicit_type "int"
	cpp_decl ""
	java_decl ""
	php_decl ""
	python_decl ""
	idl_decl ""
	mysql_decl ""
	MysqlColumn
      end

      operation 128002 "Jeton"
	public explicit_return_type ""
	nparams 3
	  param in name "lettre" explicit_type "char"
	  param in name "valeur" explicit_type "int"
	  param in name "quantite" explicit_type "int"
	
	
	
	
	
      end

      classrelation 128002 // <association>
	relation 128002 ----
	  a role_name "" private
	    classrelation_ref 128002 // <association>
	  b role_name "" private
	    classrelation_ref 128130 // <association>
      end

      classrelation 128130 // <association>
	relation_ref 128002 // <association>
      end

      classrelation 128258 // (appartenir)
	relation 128130 ---- name "appartenir"
	  a role_name "" multiplicity "1" private
	    classrelation_ref 128258 // (appartenir)
	  b role_name "" multiplicity "0..102" private
	    classrelation_ref 128386 // (appartenir)
      end
    end

    class 128130 "Sac"
      visibility package 
      cpp_decl ""
      java_decl ""
      php_decl ""
      python_2_2 python_decl ""
      idl_decl ""
      explicit_switch_type ""
      mysql_decl ""
      
      attribute 128386 "totalJeton"
	private explicit_type "int"
	cpp_decl ""
	java_decl ""
	php_decl ""
	python_decl ""
	idl_decl ""
	mysql_decl ""
	MysqlColumn
      end

      attribute 128514 "ensbleJeton"
	private type class_ref 128002 // Jeton
	stereotype "list"
	cpp_decl ""
	java_decl ""
	php_decl ""
	python_decl ""
	idl_decl ""
	mysql_decl ""
	MysqlColumn
      end

      operation 128130 "Sac"
	public explicit_return_type ""
	nparams 0
	
	
	
	
	
      end

      operation 128258 "getTotalJeton"
	public explicit_return_type ""
	nparams 0
	
	
	
	
	
      end

      operation 128386 "isJeton"
	public explicit_return_type ""
	nparams 0
	
	
	
	
	
      end

      classrelation 128386 // (appartenir)
	relation_ref 128130 // appartenir
      end

      classrelation 129282 // (conserner)
	relation 128642 ---- name "conserner"
	  a role_name "" multiplicity "1" private
	    classrelation_ref 129282 // (conserner)
	  b role_name "" multiplicity "1" private
	    classrelation_ref 129410 // (conserner)
      end
    end

    class 128258 "Chevalet"
      visibility package 
      cpp_decl ""
      java_decl ""
      php_decl ""
      python_2_2 python_decl ""
      idl_decl ""
      explicit_switch_type ""
      mysql_decl ""
      
      attribute 128642 "main"
	private type class_ref 128002 // Jeton
	stereotype "list"
	cpp_decl ""
	java_decl ""
	php_decl ""
	python_decl ""
	idl_decl ""
	mysql_decl ""
	MysqlColumn
      end

      operation 128514 "Chevalet"
	public explicit_return_type ""
	nparams 0
	
	
	
	
	
      end

      operation 128642 "changer"
	public explicit_return_type ""
	nparams 0
	
	
	
	
	
      end

      operation 128770 "poserMot"
	public explicit_return_type "string"
	nparams 0
	
	
	
	
	
      end

      classrelation 128770 // (appartenir)
	relation 128386 ---- name "appartenir"
	  a role_name "" multiplicity "1" private
	    classrelation_ref 128770 // (appartenir)
	  b role_name "" multiplicity "1" private
	    classrelation_ref 128898 // (appartenir)
      end
    end

    class 128386 "Plateau"
      visibility package 
      cpp_decl ""
      java_decl ""
      php_decl ""
      python_2_2 python_decl ""
      idl_decl ""
      explicit_switch_type ""
      mysql_decl ""
      
      attribute 129282 "carreaux"
	private explicit_type ""
	cpp_decl ""
	java_decl ""
	php_decl ""
	python_decl ""
	idl_decl ""
	mysql_decl ""
	MysqlColumn
      end

      classrelation 129026 // (se_derouler)
	relation 128514 ---- name "se_derouler"
	  a role_name "" multiplicity "1" private
	    classrelation_ref 129026 // (se_derouler)
	  b role_name "" multiplicity "1" private
	    classrelation_ref 129154 // (se_derouler)
      end

      classrelation 129538 // (contenir)
	relation 128770 ---- name "contenir"
	  a role_name "" multiplicity "1..225" private
	    classrelation_ref 129538 // (contenir)
	  b role_name "" multiplicity "1" private
	    classrelation_ref 129666 // (contenir)
      end
    end

    class 128514 "Joueur"
      visibility package 
      cpp_decl ""
      java_decl ""
      php_decl ""
      python_2_2 python_decl ""
      idl_decl ""
      explicit_switch_type ""
      mysql_decl ""
      
      attribute 128770 "pseudo"
	private explicit_type "string"
	cpp_decl ""
	java_decl ""
	php_decl ""
	python_decl ""
	idl_decl ""
	mysql_decl ""
	MysqlColumn
      end

      attribute 128898 "score"
	private explicit_type "int"
	cpp_decl ""
	java_decl ""
	php_decl ""
	python_decl ""
	idl_decl ""
	mysql_decl ""
	MysqlColumn
      end

      classrelation 128642 // (participer)
	relation_ref 128258 // participer
      end

      classrelation 128898 // (appartenir)
	relation_ref 128386 // appartenir
      end
    end

    class 128642 "Partie"
      visibility package 
      cpp_decl ""
      java_decl ""
      php_decl ""
      python_2_2 python_decl ""
      idl_decl ""
      explicit_switch_type ""
      mysql_decl ""
      
      attribute 129026 "etat"
	private explicit_type "bool"
	cpp_decl ""
	java_decl ""
	php_decl ""
	python_decl ""
	idl_decl ""
	mysql_decl ""
	MysqlColumn
      end

      attribute 129154 "score"
	private explicit_type "int"
	stereotype "vector"
	cpp_decl ""
	java_decl ""
	php_decl ""
	python_decl ""
	idl_decl ""
	mysql_decl ""
	MysqlColumn
      end

      classrelation 128514 // (participer)
	relation 128258 ---- name "participer"
	  a role_name "" multiplicity "1..4" private
	    classrelation_ref 128514 // (participer)
	  b role_name "" multiplicity "1" private
	    classrelation_ref 128642 // (participer)
      end

      classrelation 129154 // (se_derouler)
	relation_ref 128514 // se_derouler
      end

      classrelation 129410 // (conserner)
	relation_ref 128642 // conserner
      end
    end

    class 128770 "Carreaux"
      visibility package 
      cpp_decl ""
      java_decl ""
      php_decl ""
      python_2_2 python_decl ""
      idl_decl ""
      explicit_switch_type ""
      mysql_decl ""
      
      attribute 129410 "position"
	private explicit_type ""
	cpp_decl ""
	java_decl ""
	php_decl ""
	python_decl ""
	idl_decl ""
	mysql_decl ""
	MysqlColumn
      end

      attribute 129538 "valeur"
	private explicit_type ""
	cpp_decl ""
	java_decl ""
	php_decl ""
	python_decl ""
	idl_decl ""
	mysql_decl ""
	MysqlColumn
      end

      classrelation 129666 // (contenir)
	relation_ref 128770 // contenir
      end

      classrelation 129922 // (diposer)
	relation_ref 128898 // diposer
      end
    end

    class 128898 "Point"
      visibility package 
      cpp_decl ""
      java_decl ""
      php_decl ""
      python_2_2 python_decl ""
      idl_decl ""
      explicit_switch_type ""
      mysql_decl ""
      
      attribute 129666 "abscisse"
	private explicit_type ""
	cpp_decl ""
	java_decl ""
	php_decl ""
	python_decl ""
	idl_decl ""
	mysql_decl ""
	MysqlColumn
      end

      attribute 129794 "ordonne"
	private explicit_type ""
	cpp_decl ""
	java_decl ""
	php_decl ""
	python_decl ""
	idl_decl ""
	mysql_decl ""
	MysqlColumn
      end

      classrelation 129794 // (diposer)
	relation 128898 ---- name "diposer"
	  a role_name "" multiplicity "1" private
	    classrelation_ref 129794 // (diposer)
	  b role_name "" multiplicity "1" private
	    classrelation_ref 129922 // (diposer)
      end
    end
  end
end
